{
  "compilerOptions": {
    "baseUrl": ".",
    "paths": {
      "@/app/*": ["app/*"],
      "@/components/*": ["components/*"],
      "@/features/*": ["features/*"],
      "@/utils/*": ["utils/*"],
      "@/styles/*": ["styles/*"],
      "@/actions/*": ["app/actions/*"],
      "@/locale": ["i18n/locales/index"],
      "@/api/*": ["api/*"],
    }
  }
}
