<svg width="289" height="96" viewBox="0 0 289 96" fill="none" xmlns="http://www.w3.org/2000/svg">
<g filter="url(#filter0_d_324_863)">
<path d="M124.774 66.61C124.774 65.546 124.62 64.552 124.312 63.628C124.032 62.676 123.598 61.864 123.01 61.192C122.45 60.492 121.736 59.946 120.868 59.554C120 59.134 119.006 58.924 117.886 58.924C116.766 58.924 115.772 59.134 114.904 59.554C114.064 59.974 113.336 60.534 112.72 61.234C112.132 61.934 111.656 62.746 111.292 63.67C110.928 64.594 110.69 65.574 110.578 66.61H124.774ZM110.578 68.71C110.578 69.886 110.732 71.006 111.04 72.07C111.348 73.106 111.796 74.016 112.384 74.8C113 75.556 113.77 76.172 114.694 76.648C115.618 77.096 116.682 77.32 117.886 77.32C119.538 77.32 120.952 76.886 122.128 76.018C123.304 75.15 124.088 73.918 124.48 72.322H127.294C126.986 73.358 126.58 74.324 126.076 75.22C125.572 76.088 124.942 76.858 124.186 77.53C123.43 78.174 122.534 78.678 121.498 79.042C120.462 79.406 119.258 79.588 117.886 79.588C116.15 79.588 114.652 79.294 113.392 78.706C112.132 78.118 111.096 77.32 110.284 76.312C109.472 75.276 108.87 74.072 108.478 72.7C108.086 71.3 107.89 69.802 107.89 68.206C107.89 66.61 108.114 65.112 108.562 63.712C109.038 62.312 109.696 61.094 110.536 60.058C111.404 58.994 112.454 58.168 113.686 57.58C114.918 56.964 116.318 56.656 117.886 56.656C120.882 56.656 123.234 57.692 124.942 59.764C126.65 61.808 127.49 64.79 127.462 68.71H110.578ZM140.422 69.592L133.66 79H130.594L138.952 67.744L131.266 57.244H134.374L140.38 65.896L146.554 57.244H149.746L141.892 67.744L150.04 79H147.016L140.422 69.592ZM157.176 68.206C157.176 69.438 157.344 70.614 157.68 71.734C158.016 72.826 158.492 73.792 159.108 74.632C159.752 75.444 160.522 76.102 161.418 76.606C162.342 77.082 163.378 77.32 164.526 77.32C165.814 77.32 166.934 77.068 167.886 76.564C168.866 76.032 169.664 75.318 170.28 74.422C170.896 73.526 171.344 72.49 171.624 71.314C171.904 70.11 172.016 68.822 171.96 67.45C171.96 66.078 171.764 64.874 171.372 63.838C171.008 62.774 170.49 61.878 169.818 61.15C169.146 60.422 168.362 59.876 167.466 59.512C166.57 59.12 165.59 58.924 164.526 58.924C163.35 58.924 162.3 59.162 161.376 59.638C160.452 60.114 159.682 60.772 159.066 61.612C158.45 62.424 157.974 63.404 157.638 64.552C157.33 65.672 157.176 66.89 157.176 68.206ZM157.176 87.568H154.656V57.244H157.176V61.066H157.26C157.624 60.366 158.086 59.736 158.646 59.176C159.234 58.616 159.864 58.154 160.536 57.79C161.236 57.426 161.95 57.146 162.678 56.95C163.406 56.754 164.12 56.656 164.82 56.656C166.584 56.656 168.082 56.95 169.314 57.538C170.546 58.126 171.554 58.938 172.338 59.974C173.15 60.982 173.738 62.186 174.102 63.586C174.466 64.986 174.648 66.484 174.648 68.08C174.648 69.592 174.452 71.048 174.06 72.448C173.668 73.848 173.066 75.08 172.254 76.144C171.47 77.18 170.462 78.02 169.23 78.664C168.026 79.28 166.598 79.588 164.946 79.588C163.406 79.588 161.922 79.252 160.494 78.58C159.094 77.88 157.988 76.858 157.176 75.514V87.568ZM183.184 79H180.664V57.244H183.184V61.318H183.268C183.968 59.582 184.864 58.378 185.956 57.706C187.076 57.006 188.546 56.656 190.366 56.656V59.386C188.938 59.358 187.762 59.582 186.838 60.058C185.914 60.534 185.172 61.178 184.612 61.99C184.08 62.802 183.702 63.768 183.478 64.888C183.282 65.98 183.184 67.128 183.184 68.332V79ZM210.036 66.61C210.036 65.546 209.882 64.552 209.574 63.628C209.294 62.676 208.86 61.864 208.272 61.192C207.712 60.492 206.998 59.946 206.13 59.554C205.262 59.134 204.268 58.924 203.148 58.924C202.028 58.924 201.034 59.134 200.166 59.554C199.326 59.974 198.598 60.534 197.982 61.234C197.394 61.934 196.918 62.746 196.554 63.67C196.19 64.594 195.952 65.574 195.84 66.61H210.036ZM195.84 68.71C195.84 69.886 195.994 71.006 196.302 72.07C196.61 73.106 197.058 74.016 197.646 74.8C198.262 75.556 199.032 76.172 199.956 76.648C200.88 77.096 201.944 77.32 203.148 77.32C204.8 77.32 206.214 76.886 207.39 76.018C208.566 75.15 209.35 73.918 209.742 72.322H212.556C212.248 73.358 211.842 74.324 211.338 75.22C210.834 76.088 210.204 76.858 209.448 77.53C208.692 78.174 207.796 78.678 206.76 79.042C205.724 79.406 204.52 79.588 203.148 79.588C201.412 79.588 199.914 79.294 198.654 78.706C197.394 78.118 196.358 77.32 195.546 76.312C194.734 75.276 194.132 74.072 193.74 72.7C193.348 71.3 193.152 69.802 193.152 68.206C193.152 66.61 193.376 65.112 193.824 63.712C194.3 62.312 194.958 61.094 195.798 60.058C196.666 58.994 197.716 58.168 198.948 57.58C200.18 56.964 201.58 56.656 203.148 56.656C206.144 56.656 208.496 57.692 210.204 59.764C211.912 61.808 212.752 64.79 212.724 68.71H195.84ZM219.594 72.196C219.986 74.072 220.686 75.402 221.694 76.186C222.73 76.942 224.2 77.32 226.104 77.32C227.028 77.32 227.826 77.208 228.498 76.984C229.17 76.76 229.716 76.466 230.136 76.102C230.584 75.71 230.92 75.276 231.144 74.8C231.368 74.324 231.48 73.82 231.48 73.288C231.48 72.224 231.13 71.44 230.43 70.936C229.758 70.404 228.904 69.998 227.868 69.718C226.832 69.41 225.712 69.158 224.508 68.962C223.304 68.738 222.184 68.416 221.148 67.996C220.112 67.576 219.244 66.974 218.544 66.19C217.872 65.406 217.536 64.3 217.536 62.872C217.536 61.052 218.194 59.568 219.51 58.42C220.854 57.244 222.744 56.656 225.18 56.656C227.532 56.656 229.436 57.188 230.892 58.252C232.376 59.288 233.272 61.038 233.58 63.502H231.018C230.794 61.822 230.15 60.646 229.086 59.974C228.05 59.274 226.734 58.924 225.138 58.924C223.542 58.924 222.324 59.274 221.484 59.974C220.644 60.646 220.224 61.542 220.224 62.662C220.224 63.642 220.56 64.398 221.232 64.93C221.932 65.434 222.8 65.854 223.836 66.19C224.872 66.498 225.992 66.778 227.196 67.03C228.4 67.282 229.52 67.646 230.556 68.122C231.592 68.57 232.446 69.186 233.118 69.97C233.818 70.754 234.168 71.846 234.168 73.246C234.168 74.282 233.944 75.206 233.496 76.018C233.048 76.802 232.432 77.46 231.648 77.992C230.864 78.524 229.926 78.916 228.834 79.168C227.77 79.448 226.594 79.588 225.306 79.588C224.018 79.588 222.87 79.392 221.862 79C220.882 78.636 220.042 78.118 219.342 77.446C218.642 76.774 218.096 75.99 217.704 75.094C217.312 74.198 217.088 73.232 217.032 72.196H219.594ZM241.094 72.196C241.486 74.072 242.186 75.402 243.194 76.186C244.23 76.942 245.7 77.32 247.604 77.32C248.528 77.32 249.326 77.208 249.998 76.984C250.67 76.76 251.216 76.466 251.636 76.102C252.084 75.71 252.42 75.276 252.644 74.8C252.868 74.324 252.98 73.82 252.98 73.288C252.98 72.224 252.63 71.44 251.93 70.936C251.258 70.404 250.404 69.998 249.368 69.718C248.332 69.41 247.212 69.158 246.008 68.962C244.804 68.738 243.684 68.416 242.648 67.996C241.612 67.576 240.744 66.974 240.044 66.19C239.372 65.406 239.036 64.3 239.036 62.872C239.036 61.052 239.694 59.568 241.01 58.42C242.354 57.244 244.244 56.656 246.68 56.656C249.032 56.656 250.936 57.188 252.392 58.252C253.876 59.288 254.772 61.038 255.08 63.502H252.518C252.294 61.822 251.65 60.646 250.586 59.974C249.55 59.274 248.234 58.924 246.638 58.924C245.042 58.924 243.824 59.274 242.984 59.974C242.144 60.646 241.724 61.542 241.724 62.662C241.724 63.642 242.06 64.398 242.732 64.93C243.432 65.434 244.3 65.854 245.336 66.19C246.372 66.498 247.492 66.778 248.696 67.03C249.9 67.282 251.02 67.646 252.056 68.122C253.092 68.57 253.946 69.186 254.618 69.97C255.318 70.754 255.668 71.846 255.668 73.246C255.668 74.282 255.444 75.206 254.996 76.018C254.548 76.802 253.932 77.46 253.148 77.992C252.364 78.524 251.426 78.916 250.334 79.168C249.27 79.448 248.094 79.588 246.806 79.588C245.518 79.588 244.37 79.392 243.362 79C242.382 78.636 241.542 78.118 240.842 77.446C240.142 76.774 239.596 75.99 239.204 75.094C238.812 74.198 238.588 73.232 238.532 72.196H241.094Z" fill="white"/>
<path d="M131.035 22.4824C131.035 20.5358 130.519 19.1478 129.486 18.3184C128.471 17.4889 127.04 17.0742 125.195 17.0742H117.908V28.0938H125.195C127.04 28.0938 128.471 27.6452 129.486 26.748C130.519 25.8509 131.035 24.429 131.035 22.4824ZM138.779 22.4316C138.779 26.8496 137.662 29.9727 135.428 31.8008C133.193 33.6289 130.003 34.543 125.855 34.543H117.908V48H110.139V10.5742H126.439C130.197 10.5742 133.193 11.5391 135.428 13.4688C137.662 15.3984 138.779 18.3861 138.779 22.4316ZM159.82 19.6133C161.53 19.6133 163.079 19.9095 164.467 20.502C165.872 21.0944 167.023 22 167.92 23.2188C168.682 24.2513 169.147 25.3177 169.316 26.418C169.486 27.5013 169.57 29.2786 169.57 31.75V48H162.182V31.166C162.182 29.6764 161.928 28.4746 161.42 27.5605C160.76 26.2741 159.507 25.6309 157.662 25.6309C155.749 25.6309 154.294 26.2741 153.295 27.5605C152.313 28.8301 151.822 30.6497 151.822 33.0195V48H144.611V10.7012H151.822V23.9297C152.872 22.3216 154.082 21.2044 155.453 20.5781C156.841 19.9349 158.297 19.6133 159.82 19.6133ZM189.266 42.8965C191.382 42.8965 193.007 42.1432 194.141 40.6367C195.275 39.1302 195.842 36.9889 195.842 34.2129C195.842 31.4368 195.275 29.304 194.141 27.8145C193.007 26.3079 191.382 25.5547 189.266 25.5547C187.15 25.5547 185.516 26.3079 184.365 27.8145C183.231 29.304 182.664 31.4368 182.664 34.2129C182.664 36.9889 183.231 39.1302 184.365 40.6367C185.516 42.1432 187.15 42.8965 189.266 42.8965ZM203.434 34.2129C203.434 38.2754 202.266 41.7539 199.93 44.6484C197.594 47.526 194.048 48.9648 189.291 48.9648C184.535 48.9648 180.988 47.526 178.652 44.6484C176.316 41.7539 175.148 38.2754 175.148 34.2129C175.148 30.2181 176.316 26.7565 178.652 23.8281C180.988 20.8997 184.535 19.4355 189.291 19.4355C194.048 19.4355 197.594 20.8997 199.93 23.8281C202.266 26.7565 203.434 30.2181 203.434 34.2129ZM206.295 25.7324V20.5781H210.154V12.8594H217.314V20.5781H221.809V25.7324H217.314V40.3574C217.314 41.4915 217.458 42.2025 217.746 42.4902C218.034 42.7611 218.914 42.8965 220.387 42.8965C220.607 42.8965 220.835 42.8965 221.072 42.8965C221.326 42.8796 221.572 42.8626 221.809 42.8457V48.2539L218.381 48.3809C214.962 48.4993 212.626 47.9069 211.373 46.6035C210.561 45.7741 210.154 44.4961 210.154 42.7695V25.7324H206.295ZM239.371 42.8965C241.487 42.8965 243.112 42.1432 244.246 40.6367C245.38 39.1302 245.947 36.9889 245.947 34.2129C245.947 31.4368 245.38 29.304 244.246 27.8145C243.112 26.3079 241.487 25.5547 239.371 25.5547C237.255 25.5547 235.622 26.3079 234.471 27.8145C233.337 29.304 232.77 31.4368 232.77 34.2129C232.77 36.9889 233.337 39.1302 234.471 40.6367C235.622 42.1432 237.255 42.8965 239.371 42.8965ZM253.539 34.2129C253.539 38.2754 252.371 41.7539 250.035 44.6484C247.699 47.526 244.153 48.9648 239.396 48.9648C234.64 48.9648 231.094 47.526 228.758 44.6484C226.422 41.7539 225.254 38.2754 225.254 34.2129C225.254 30.2181 226.422 26.7565 228.758 23.8281C231.094 20.8997 234.64 19.4355 239.396 19.4355C244.153 19.4355 247.699 20.8997 250.035 23.8281C252.371 26.7565 253.539 30.2181 253.539 34.2129ZM274.58 19.6641C277.441 19.6641 279.777 20.4173 281.588 21.9238C283.416 23.4134 284.33 25.8932 284.33 29.3633V48H276.916V31.166C276.916 29.7103 276.721 28.5931 276.332 27.8145C275.621 26.3926 274.267 25.6816 272.27 25.6816C269.815 25.6816 268.131 26.7227 267.217 28.8047C266.743 29.9049 266.506 31.3099 266.506 33.0195V48H259.295V20.375H266.277V24.4121C267.208 22.9902 268.089 21.9661 268.918 21.3398C270.408 20.2227 272.295 19.6641 274.58 19.6641Z" fill="white"/>
<path fill-rule="evenodd" clip-rule="evenodd" d="M27.191 8.51088L34.3908 28.2868L17.6159 74.3356C9.27456 67.0933 4 56.4114 4 44.4975C4 28.4977 13.5128 14.7197 27.191 8.51088ZM43.9597 5L69.3631 74.3539C77.7167 67.1114 83.0002 56.4214 83.0002 44.4975C83.0002 22.8356 65.5632 5.24632 43.9597 5ZM53.9501 82.6005L43.5001 48.8586H43.2619L33.1598 82.6303C36.4556 83.5219 39.9223 83.9976 43.5001 83.9976C47.1176 83.9976 50.6215 83.5113 53.9501 82.6005Z" fill="white"/>
</g>
<defs>
<filter id="filter0_d_324_863" x="0" y="5" width="288.33" height="90.568" filterUnits="userSpaceOnUse" color-interpolation-filters="sRGB">
<feFlood flood-opacity="0" result="BackgroundImageFix"/>
<feColorMatrix in="SourceAlpha" type="matrix" values="0 0 0 0 0 0 0 0 0 0 0 0 0 0 0 0 0 0 127 0" result="hardAlpha"/>
<feOffset dy="4"/>
<feGaussianBlur stdDeviation="2"/>
<feComposite in2="hardAlpha" operator="out"/>
<feColorMatrix type="matrix" values="0 0 0 0 0 0 0 0 0 0 0 0 0 0 0 0 0 0 0.25 0"/>
<feBlend mode="normal" in2="BackgroundImageFix" result="effect1_dropShadow_324_863"/>
<feBlend mode="normal" in="SourceGraphic" in2="effect1_dropShadow_324_863" result="shape"/>
</filter>
</defs>
</svg>
