<svg xmlns="http://www.w3.org/2000/svg" width="70" height="63" viewBox="0 0 70 63" fill="none">
<path d="M30.6474 4.61603L2.89241 52.5565C2.45025 53.3224 2.21709 54.191 2.21631 55.0753C2.21553 55.9596 
2.44714 56.8286 2.88795 57.5952C3.32876 58.3619 3.96328 58.9992 4.72795 59.4434C5.49262 59.8875 6.36059 
60.123 7.24491 60.1261H62.755C63.6393 60.123 64.5073 59.8875 65.2719 59.4434C66.0366 58.9992 66.6711 
58.3619 67.1119 57.5952C67.5527 56.8286 67.7844 55.9596 67.7836 55.0753C67.7828 54.191 67.5496 53.3224 
67.1075 52.5565L39.3524 4.61603C38.9136 3.84919 38.2799 3.21191 37.5156 2.76869C36.7513 2.32547 35.8835 
2.09204 34.9999 2.09204C34.1164 2.09204 33.2486 2.32547 32.4843 2.76869C31.7199 3.21191 31.0863 3.84919 
30.6474 4.61603V4.61603Z" stroke="#FF7A00" stroke-width="4" stroke-linecap="round" stroke-linejoin="round"/>
</svg>